…
## Observations: 15,066
## Variables: 6
## $ Location   <fct> Afghanistan, Afghanistan, Afghanistan, Afghanistan, Afghan…
## $ Period     <int> 2016, 2016, 2016, 2015, 2015, 2015, 2014, 2014, 2014, 2013…
## $ Indicator  <chr> "NonPregAn", "PregAn", "ReprodAn", "NonPregAn", "PregAn", …
## $ Prevalence <dbl> 42.38, 38.19, 42.01, 41.00, 37.82, 40.70, 39.60, 37.53, 39…
## $ LowerCI    <dbl> 27.71, 24.71, 28.21, 27.95, 25.71, 28.50, 28.11, 26.74, 28…
## $ UpperCI    <dbl> 55.80, 53.29, 54.91, 52.90, 51.32, 51.96, 50.01, 50.00, 49…

tidyfulldata

## # A tibble: 15,066 x 6
##    Location    Period Indicator Prevalence LowerCI UpperCI
##    <fct>        <int> <chr>          <dbl>   <dbl>   <dbl>
##  1 Afghanistan   2016 NonPregAn       42.4    27.7    55.8
##  2 Afghanistan   2016 PregAn          38.2    24.7    53.3
##  3 Afghanistan   2016 ReprodAn        42.0    28.2    54.9
##  4 Afghanistan   2015 NonPregAn       41      28.0    52.9
##  5 Afghanistan   2015 PregAn          37.8    25.7    51.3
##  6 Afghanistan   2015 ReprodAn        40.7    28.5    52.0
##  7 Afghanistan   2014 NonPregAn       39.6    28.1    50.0
##  8 Afghanistan   2014 PregAn          37.5    26.7    50  
##  9 Afghanistan   2014 ReprodAn        39.4    28.7    49.3
## 10 Afghanistan   2013 NonPregAn       38.4    28.1    47.9
## # … with 15,056 more rows
…
tidyfulldata <- tidyfulldata %>% na.omit

tidyfulldata %>% group_by(Location) %>% filter(Period == 2016 | 
    Period == 2015 | Period == 2014 | Period == 2013 | Period == 
    2012 | Period == 2011 | Period == 2010) %>% select(-Period) %>% 
    arrange(desc(Location)) %>% mutate(Proportion = Prevalence/100) %>% 
    group_by(Location, Indicator) %>% summarize_all(mean)

## # A tibble: 561 x 6
## # Groups:   Location [187]
##    Location    Indicator Prevalence LowerCI UpperCI Proportion
##    <fct>       <chr>          <dbl>   <dbl>   <dbl>      <dbl>
##  1 Afghanistan NonPregAn       38.7   27.5     49.3      0.387
##  2 Afghanistan PregAn          37.6   26.6     49.8      0.376
##  3 Afghanistan ReprodAn        38.6   28.2     48.6      0.386
##  4 Albania     NonPregAn       23.5   12.9     37.9      0.235
##  5 Albania     PregAn          22.3   14.4     37.3      0.223
##  6 Albania     ReprodAn        23.4   13.1     37.5      0.234
##  7 Algeria     NonPregAn       33.9   16.2     55.9      0.339
##  8 Algeria     PregAn          37.8   20.3     58.8      0.378
##  9 Algeria     ReprodAn        34.1   16.9     55.7      0.341
## 10 Andorra     NonPregAn       11.9    6.78    24.8      0.119
## # … with 551 more rows
…
